exercise6/part1/simulation/qsim/exercise6.msim.vcd
$comment
	File created using the following command:
		vcd file exercise6.msim.vcd -direction
$end
$date
	Tue Nov 03 09:40:55 2015
$end
$version
	ModelSim Version 10.3d
$end
$timescale
	1ps
$end

$scope module exercise6_vlg_vec_tst $end
$var reg 1 ! KEY [0:0] $end
$var reg 2 " SW [1:0] $end
$var wire 1 # LEDR [9] $end
$var wire 1 $ LEDR [8] $end
$var wire 1 % LEDR [7] $end
$var wire 1 & LEDR [6] $end
$var wire 1 ' LEDR [5] $end
$var wire 1 ( LEDR [4] $end
$var wire 1 ) LEDR [3] $end
$var wire 1 * LEDR [2] $end
$var wire 1 + LEDR [1] $end
$var wire 1 , LEDR [0] $end
$var wire 1 - clk $end
$var wire 1 . r $end
$var wire 1 / w $end
$var wire 1 0 w0 $end
$var wire 1 1 w1 $end
$var wire 1 2 w2 $end
$var wire 1 3 w3 $end
$var wire 1 4 w4 $end
$var wire 1 5 w5 $end
$var wire 1 6 w6 $end
$var wire 1 7 w7 $end
$var wire 1 8 w8 $end
$var wire 1 9 z $end
$var wire 1 : sampler $end

$scope module i1 $end
$var wire 1 ; gnd $end
$var wire 1 < vcc $end
$var wire 1 = unknown $end
$var tri1 1 > devclrn $end
$var tri1 1 ? devpor $end
$var tri1 1 @ devoe $end
$var wire 1 A ~QUARTUS_CREATED_GND~I_combout $end
$var wire 1 B KEY[0]~input_o $end
$var wire 1 C KEY[0]~inputCLKENA0_outclk $end
$var wire 1 D SW[0]~input_o $end
$var wire 1 E comb~5_combout $end
$var wire 1 F SW[1]~input_o $end
$var wire 1 G U5|Q~q $end
$var wire 1 H comb~6_combout $end
$var wire 1 I U6|Q~q $end
$var wire 1 J comb~7_combout $end
$var wire 1 K U7|Q~q $end
$var wire 1 L comb~1_combout $end
$var wire 1 M U8|Q~q $end
$var wire 1 N comb~2_combout $end
$var wire 1 O U1|Q~q $end
$var wire 1 P comb~3_combout $end
$var wire 1 Q U2|Q~q $end
$var wire 1 R comb~4_combout $end
$var wire 1 S U3|Q~q $end
$var wire 1 T comb~0_combout $end
$var wire 1 U U4|Q~q $end
$var wire 1 V z~0_combout $end
$upscope $end
$upscope $end
$enddefinitions $end
#0
$dumpvars
b0 !
b0 "
0,
0+
0*
0)
0(
0'
0&
0%
0$
0#
0-
0.
0/
00
01
02
03
04
05
06
07
08
09
x:
0;
1<
x=
1>
1?
1@
0A
0B
0C
0D
0E
0F
0G
0H
0I
0J
0K
0L
0M
0N
0O
0P
0Q
0R
0S
0T
0U
0V
$end
#10000
b1 !
1B
0:
1C
1-
#20000
b10 "
b0 !
0B
1:
0C
1F
1.
0-
#30000
b1 !
1B
0:
1C
1-
#40000
b0 "
b0 !
0B
1:
0C
0F
0.
0-
#50000
b1 !
1B
0:
1C
1-
#60000
b0 !
0B
1:
0C
0-
#70000
b1 !
1B
0:
1C
1-
#80000
b10 "
b0 !
0B
1:
0C
1F
1.
0-
#90000
b1 !
1B
0:
1C
1-
#100000
b0 !
0B
1:
0C
0-
#110000
b1 !
1B
0:
1C
1-
#120000
b11 "
b0 !
0B
1:
0C
1D
1/
0-
#130000
b1 !
1B
0:
1C
1-
#140000
b0 !
0B
1:
0C
0-
#150000
b1 !
1B
0:
1C
1-
#160000
b0 !
0B
1:
0C
0-
#170000
b1 !
1B
0:
1C
1-
#180000
b0 !
0B
1:
0C
0-
#190000
b1 !
1B
0:
1C
1-
#200000
b0 !
0B
1:
0C
0-
#210000
b1 !
1B
0:
1C
1-
#220000
b0 !
0B
1:
0C
0-
#230000
b1 !
1B
0:
1C
1-
#240000
b10 "
b0 !
0B
1:
0C
0D
0/
0-
#250000
b1 !
1B
0:
1C
1-
#260000
b0 !
0B
1:
0C
0-
#270000
b1 !
1B
0:
1C
1-
#280000
b0 !
0B
1:
0C
0-
#290000
b1 !
1B
0:
1C
1-
#300000
b0 !
0B
1:
0C
0-
#310000
b1 !
1B
0:
1C
1-
#320000
b0 !
0B
1:
0C
0-
#330000
b1 !
1B
0:
1C
1-
#340000
b0 !
0B
1:
0C
0-
#350000
b1 !
1B
0:
1C
1-
#360000
b0 !
0B
1:
0C
0-
#370000
b1 !
1B
0:
1C
1-
#380000
b0 !
0B
1:
0C
0-
#390000
b1 !
1B
0:
1C
1-
#400000
b0 !
0B
1:
0C
0-
#410000
b1 !
1B
0:
1C
1-
#420000
b0 !
0B
1:
0C
0-
#430000
b1 !
1B
0:
1C
1-
#440000
b0 !
0B
1:
0C
0-
#450000
b1 !
1B
0:
1C
1-
#460000
b0 !
0B
1:
0C
0-
#470000
b1 !
1B
0:
1C
1-
#480000
b0 !
0B
1:
0C
0-
#490000
b1 !
1B
0:
1C
1-
#500000
b0 !
0B
1:
0C
0-
#510000
b1 !
1B
0:
1C
1-
#520000
b0 !
0B
1:
0C
0-
#530000
b1 !
1B
0:
1C
1-
#540000
b0 !
0B
1:
0C
0-
#550000
b1 !
1B
0:
1C
1-
#560000
b0 !
0B
1:
0C
0-
#570000
b1 !
1B
0:
1C
1-
#580000
b0 !
0B
1:
0C
0-
#590000
b1 !
1B
0:
1C
1-
#600000
b0 "
b0 !
0B
1:
0C
0F
0.
0-
#610000
b1 !
1B
0:
1C
1-
#620000
b0 !
0B
1:
0C
0-
#630000
b1 !
1B
0:
1C
1-
#640000
b0 !
0B
1:
0C
0-
#650000
b1 !
1B
0:
1C
1-
#660000
b0 !
0B
1:
0C
0-
#670000
b1 !
1B
0:
1C
1-
#680000
b0 !
0B
1:
0C
0-
#690000
b1 !
1B
0:
1C
1-
#700000
b0 !
0B
1:
0C
0-
#710000
b1 !
1B
0:
1C
1-
#720000
b0 !
0B
1:
0C
0-
#730000
b1 !
1B
0:
1C
1-
#740000
b0 !
0B
1:
0C
0-
#750000
b1 !
1B
0:
1C
1-
#760000
b0 !
0B
1:
0C
0-
#770000
b1 !
1B
0:
1C
1-
#780000
b0 !
0B
1:
0C
0-
#790000
b1 !
1B
0:
1C
1-
#800000
b0 !
0B
1:
0C
0-
#810000
b1 !
1B
0:
1C
1-
#820000
b0 !
0B
1:
0C
0-
#830000
b1 !
1B
0:
1C
1-
#840000
b0 !
0B
1:
0C
0-
#850000
b1 !
1B
0:
1C
1-
#860000
b0 !
0B
1:
0C
0-
#870000
b1 !
1B
0:
1C
1-
#880000
b0 !
0B
1:
0C
0-
#890000
b1 !
1B
0:
1C
1-
#900000
b0 !
0B
1:
0C
0-
#910000
b1 !
1B
0:
1C
1-
#920000
b0 !
0B
1:
0C
0-
#930000
b1 !
1B
0:
1C
1-
#940000
b0 !
0B
1:
0C
0-
#950000
b1 !
1B
0:
1C
1-
#960000
b0 !
0B
1:
0C
0-
#970000
b1 !
1B
0:
1C
1-
#980000
b0 !
0B
1:
0C
0-
#990000
b1 !
1B
0:
1C
1-
