exercise6/part3/simulation/qsim/part3.msim.vcd
$comment
	File created using the following command:
		vcd file part3.msim.vcd -direction
$end
$date
	Tue Nov 03 12:11:30 2015
$end
$version
	ModelSim Version 10.3d
$end
$timescale
	1ps
$end

$scope module part3_vlg_vec_tst $end
$var reg 1 ! CLOCK_50 $end
$var reg 2 " KEY [1:0] $end
$var reg 3 # SW [2:0] $end
$var wire 1 $ LEDR [0] $end
$var wire 1 % halfsecond $end
$var wire 1 & morse [15] $end
$var wire 1 ' morse [14] $end
$var wire 1 ( morse [13] $end
$var wire 1 ) morse [12] $end
$var wire 1 * morse [11] $end
$var wire 1 + morse [10] $end
$var wire 1 , morse [9] $end
$var wire 1 - morse [8] $end
$var wire 1 . morse [7] $end
$var wire 1 / morse [6] $end
$var wire 1 0 morse [5] $end
$var wire 1 1 morse [4] $end
$var wire 1 2 morse [3] $end
$var wire 1 3 morse [2] $end
$var wire 1 4 morse [1] $end
$var wire 1 5 morse [0] $end
$var wire 1 6 value [2] $end
$var wire 1 7 value [1] $end
$var wire 1 8 value [0] $end
$var wire 1 9 sampler $end

$scope module i1 $end
$var wire 1 : gnd $end
$var wire 1 ; vcc $end
$var wire 1 < unknown $end
$var tri1 1 = devclrn $end
$var tri1 1 > devpor $end
$var tri1 1 ? devoe $end
$var wire 1 @ ~QUARTUS_CREATED_GND~I_combout $end
$var wire 1 A CLOCK_50~input_o $end
$var wire 1 B CLOCK_50~inputCLKENA0_outclk $end
$var wire 1 C KEY[0]~input_o $end
$var wire 1 D U1|Add0~37_sumout $end
$var wire 1 E U1|Add0~38 $end
$var wire 1 F U1|Add0~33_sumout $end
$var wire 1 G U1|Add0~34 $end
$var wire 1 H U1|Add0~6 $end
$var wire 1 I U1|Add0~1_sumout $end
$var wire 1 J U1|Add0~2 $end
$var wire 1 K U1|Add0~101_sumout $end
$var wire 1 L U1|Add0~102 $end
$var wire 1 M U1|Add0~97_sumout $end
$var wire 1 N U1|Add0~98 $end
$var wire 1 O U1|Add0~93_sumout $end
$var wire 1 P U1|Add0~94 $end
$var wire 1 Q U1|Add0~85_sumout $end
$var wire 1 R U1|Add0~86 $end
$var wire 1 S U1|Add0~89_sumout $end
$var wire 1 T U1|Add0~90 $end
$var wire 1 U U1|Add0~29_sumout $end
$var wire 1 V U1|Add0~30 $end
$var wire 1 W U1|Add0~81_sumout $end
$var wire 1 X U1|Add0~82 $end
$var wire 1 Y U1|Add0~77_sumout $end
$var wire 1 Z U1|Add0~78 $end
$var wire 1 [ U1|Add0~73_sumout $end
$var wire 1 \ U1|Add0~74 $end
$var wire 1 ] U1|Add0~69_sumout $end
$var wire 1 ^ U1|Add0~70 $end
$var wire 1 _ U1|Add0~65_sumout $end
$var wire 1 ` U1|Add0~66 $end
$var wire 1 a U1|Add0~61_sumout $end
$var wire 1 b U1|Add0~62 $end
$var wire 1 c U1|Add0~57_sumout $end
$var wire 1 d U1|Equal0~2_combout $end
$var wire 1 e U1|Equal0~3_combout $end
$var wire 1 f U1|Add0~58 $end
$var wire 1 g U1|Add0~25_sumout $end
$var wire 1 h U1|Add0~26 $end
$var wire 1 i U1|Add0~21_sumout $end
$var wire 1 j U1|Add0~22 $end
$var wire 1 k U1|Add0~17_sumout $end
$var wire 1 l U1|Add0~18 $end
$var wire 1 m U1|Add0~13_sumout $end
$var wire 1 n U1|Add0~14 $end
$var wire 1 o U1|Add0~9_sumout $end
$var wire 1 p U1|Add0~10 $end
$var wire 1 q U1|Add0~53_sumout $end
$var wire 1 r U1|Add0~54 $end
$var wire 1 s U1|Add0~49_sumout $end
$var wire 1 t U1|Add0~50 $end
$var wire 1 u U1|Add0~45_sumout $end
$var wire 1 v U1|Add0~46 $end
$var wire 1 w U1|Add0~41_sumout $end
$var wire 1 x U1|Equal0~1_combout $end
$var wire 1 y U1|Equal0~0_combout $end
$var wire 1 z U1|Equal0~5_combout $end
$var wire 1 { U1|Add0~5_sumout $end
$var wire 1 | U1|Q[2]~DUPLICATE_q $end
$var wire 1 } U1|Equal0~4_combout $end
$var wire 1 ~ U1|s~0_combout $end
$var wire 1 !! U1|s~feeder_combout $end
$var wire 1 "! U1|s~q $end
$var wire 1 #! KEY[1]~input_o $end
$var wire 1 $! SW[1]~input_o $end
$var wire 1 %! SW[2]~input_o $end
$var wire 1 &! SW[0]~input_o $end
$var wire 1 '! U0|WideOr0~0_combout $end
$var wire 1 (! U0|Decoder0~0_combout $end
$var wire 1 )! U2|Q[2]~feeder_combout $end
$var wire 1 *! U0|Decoder0~1_combout $end
$var wire 1 +! U2|Q[4]~feeder_combout $end
$var wire 1 ,! U0|out[5]~0_combout $end
$var wire 1 -! U0|Decoder0~2_combout $end
$var wire 1 .! U0|Decoder0~3_combout $end
$var wire 1 /! U2|Q[7]~feeder_combout $end
$var wire 1 0! U0|out[5]~1_combout $end
$var wire 1 1! U2|Q~2_combout $end
$var wire 1 2! U2|Q~1_combout $end
$var wire 1 3! U2|Q~0_combout $end
$var wire 1 4! U2|bitout~0_combout $end
$var wire 1 5! U2|bitout~q $end
$var wire 1 6! U1|Q [25] $end
$var wire 1 7! U1|Q [24] $end
$var wire 1 8! U1|Q [23] $end
$var wire 1 9! U1|Q [22] $end
$var wire 1 :! U1|Q [21] $end
$var wire 1 ;! U1|Q [20] $end
$var wire 1 <! U1|Q [19] $end
$var wire 1 =! U1|Q [18] $end
$var wire 1 >! U1|Q [17] $end
$var wire 1 ?! U1|Q [16] $end
$var wire 1 @! U1|Q [15] $end
$var wire 1 A! U1|Q [14] $end
$var wire 1 B! U1|Q [13] $end
$var wire 1 C! U1|Q [12] $end
$var wire 1 D! U1|Q [11] $end
$var wire 1 E! U1|Q [10] $end
$var wire 1 F! U1|Q [9] $end
$var wire 1 G! U1|Q [8] $end
$var wire 1 H! U1|Q [7] $end
$var wire 1 I! U1|Q [6] $end
$var wire 1 J! U1|Q [5] $end
$var wire 1 K! U1|Q [4] $end
$var wire 1 L! U1|Q [3] $end
$var wire 1 M! U1|Q [2] $end
$var wire 1 N! U1|Q [1] $end
$var wire 1 O! U1|Q [0] $end
$var wire 1 P! U2|Q [15] $end
$var wire 1 Q! U2|Q [14] $end
$var wire 1 R! U2|Q [13] $end
$var wire 1 S! U2|Q [12] $end
$var wire 1 T! U2|Q [11] $end
$var wire 1 U! U2|Q [10] $end
$var wire 1 V! U2|Q [9] $end
$var wire 1 W! U2|Q [8] $end
$var wire 1 X! U2|Q [7] $end
$var wire 1 Y! U2|Q [6] $end
$var wire 1 Z! U2|Q [5] $end
$var wire 1 [! U2|Q [4] $end
$var wire 1 \! U2|Q [3] $end
$var wire 1 ]! U2|Q [2] $end
$var wire 1 ^! U2|Q [1] $end
$var wire 1 _! U2|Q [0] $end
$upscope $end
$upscope $end
$enddefinitions $end
#0
$dumpvars
0!
b0 "
b0 #
0$
0%
15
04
13
12
11
00
0/
0.
0-
0,
0+
0*
0)
0(
0'
0&
08
07
06
x9
0:
1;
x<
1=
1>
1?
0@
0A
0B
0C
1D
0E
0F
0G
0H
0I
0J
0K
0L
0M
0N
0O
0P
0Q
0R
0S
0T
0U
0V
0W
0X
0Y
0Z
0[
0\
0]
0^
0_
0`
0a
0b
0c
1d
1e
0f
0g
0h
0i
0j
0k
0l
0m
0n
0o
0p
0q
0r
0s
0t
0u
0v
0w
1x
1y
0z
0{
0|
1}
0~
0!!
0"!
0#!
0$!
0%!
0&!
0'!
1(!
1)!
1*!
1+!
0,!
0-!
0.!
0/!
00!
01!
02!
03!
04!
05!
0O!
0N!
0M!
0L!
0K!
0J!
0I!
0H!
0G!
0F!
0E!
0D!
0C!
0B!
0A!
0@!
0?!
0>!
0=!
0<!
0;!
0:!
09!
08!
07!
06!
0_!
0^!
0]!
0\!
0[!
0Z!
0Y!
0X!
0W!
0V!
0U!
zT!
zS!
zR!
zQ!
zP!
$end
#15000
1!
09
1A
1B
1O!
0x
1E
0D
0}
1F
#20000
b1 #
b101 #
19
1&!
1%!
16
18
1,!
0*!
10!
1-!
1/
1-
02
10
#30000
0!
09
0A
0B
#45000
1!
19
1A
1B
1N!
0O!
0E
1G
1D
0F
0G
1F
1{
0{
#60000
0!
09
0A
0B
#75000
1!
19
1A
1B
1O!
1E
0D
1G
0F
1{
#90000
0!
09
0A
0B
#105000
1!
19
1A
1B
1|
1M!
0N!
0O!
1x
0E
0G
1H
1D
1F
0{
0H
1}
0F
1{
1I
1~
0I
1!!
#120000
b10 "
0!
1#!
09
0A
0B
13!
#135000
1!
19
1A
1B
1O!
1"!
0x
1E
1%
0D
0}
1F
1_!
1]!
1[!
1Z!
1Y!
1W!
#150000
0!
09
0A
0B
#165000
1!
19
1A
1B
1N!
0O!
0E
1G
1D
0F
0G
1H
1F
0{
0H
1{
1I
0I
#180000
0!
09
0A
0B
#195000
1!
19
1A
1B
1O!
1E
0D
1G
0F
1H
0{
1I
#200000
b100 #
b0 #
b0 "
0#!
09
0&!
0%!
14!
06
08
03!
0,!
1*!
00!
0-!
0/
0-
12
00
#210000
0!
19
0A
0B
#225000
1!
09
1A
1B
0|
0M!
1L!
0N!
0O!
1x
0E
0G
1J
0H
1D
1F
0I
1{
0J
1}
1z
0F
0{
1K
1I
0~
0K
0!!
#240000
0!
19
0A
0B
#255000
1!
09
1A
1B
0L!
0"!
0z
0%
0I
#270000
0!
19
0A
0B
#285000
1!
09
1A
1B
1O!
0x
1E
0D
0}
1F
#300000
0!
19
0A
0B
#315000
1!
09
1A
1B
1N!
0O!
0E
1G
1D
0F
0G
1F
1{
0{
#330000
0!
19
0A
0B
#345000
1!
09
1A
1B
1O!
1E
0D
1G
0F
1{
#360000
0!
19
0A
0B
#375000
1!
09
1A
1B
1|
1M!
0N!
0O!
1x
0E
0G
1H
1D
1F
0{
0H
1}
0F
1{
1I
1~
0I
1!!
#390000
0!
19
0A
0B
#405000
1!
09
1A
1B
1O!
1"!
0x
1E
1%
0D
0}
1F
0_!
1^!
0]!
1\!
0Y!
1X!
0W!
15!
04!
1$
13!
#420000
0!
19
0A
0B
#435000
1!
09
1A
1B
1N!
0O!
0E
1G
1D
0F
0G
1H
1F
0{
0H
1{
1I
0I
#450000
0!
19
0A
0B
#465000
1!
09
1A
1B
1O!
1E
0D
1G
0F
1H
0{
1I
#480000
0!
19
0A
0B
#495000
1!
09
1A
1B
0|
0M!
1L!
0N!
0O!
1x
0E
0G
1J
0H
1D
1F
0I
1{
0J
1}
1z
0F
0{
1K
1I
0~
0K
0!!
#510000
0!
19
0A
0B
#525000
1!
09
1A
1B
0L!
0"!
0z
0%
0I
#540000
0!
19
0A
0B
#555000
1!
09
1A
1B
1O!
0x
1E
0D
0}
1F
#570000
0!
19
0A
0B
#585000
1!
09
1A
1B
1N!
0O!
0E
1G
1D
0F
0G
1F
1{
0{
#600000
0!
19
0A
0B
#615000
1!
09
1A
1B
1O!
1E
0D
1G
0F
1{
#630000
0!
19
0A
0B
#645000
1!
09
1A
1B
1|
1M!
0N!
0O!
1x
0E
0G
1H
1D
1F
0{
0H
1}
0F
1{
1I
1~
0I
1!!
#660000
0!
19
0A
0B
#675000
1!
09
1A
1B
1O!
1"!
0x
1E
1%
0D
0}
1F
1_!
0^!
1]!
0Z!
1Y!
0X!
05!
14!
0$
03!
#690000
0!
19
0A
0B
#705000
1!
09
1A
1B
1N!
0O!
0E
1G
1D
0F
0G
1H
1F
0{
0H
1{
1I
0I
#720000
0!
19
0A
0B
#735000
1!
09
1A
1B
1O!
1E
0D
1G
0F
1H
0{
1I
#750000
0!
19
0A
0B
#765000
1!
09
1A
1B
0|
0M!
1L!
0N!
0O!
1x
0E
0G
1J
0H
1D
1F
0I
1{
0J
1}
1z
0F
0{
1K
1I
0~
0K
0!!
#780000
0!
19
0A
0B
#795000
1!
09
1A
1B
0L!
0"!
0z
0%
0I
#810000
0!
19
0A
0B
#825000
1!
09
1A
1B
1O!
0x
1E
0D
0}
1F
#840000
0!
19
0A
0B
#855000
1!
09
1A
1B
1N!
0O!
0E
1G
1D
0F
0G
1F
1{
0{
#870000
0!
19
0A
0B
#885000
1!
09
1A
1B
1O!
1E
0D
1G
0F
1{
#900000
0!
19
0A
0B
#915000
1!
09
1A
1B
1|
1M!
0N!
0O!
1x
0E
0G
1H
1D
1F
0{
0H
1}
0F
1{
1I
1~
0I
1!!
#930000
0!
19
0A
0B
#945000
1!
09
1A
1B
1O!
1"!
0x
1E
1%
0D
0}
1F
0_!
1^!
0[!
1Z!
0Y!
15!
04!
1$
13!
#960000
0!
19
0A
0B
#975000
1!
09
1A
1B
1N!
0O!
0E
1G
1D
0F
0G
1H
1F
0{
0H
1{
1I
0I
#990000
0!
19
0A
0B
#1005000
1!
09
1A
1B
1O!
1E
0D
1G
0F
1H
0{
1I
#1020000
0!
19
0A
0B
#1035000
1!
09
1A
1B
0|
0M!
1L!
0N!
0O!
1x
0E
0G
1J
0H
1D
1F
0I
1{
0J
1}
1z
0F
0{
1K
1I
0~
0K
0!!
#1050000
0!
19
0A
0B
#1065000
1!
09
1A
1B
0L!
0"!
0z
0%
0I
#1080000
0!
19
0A
0B
#1095000
1!
09
1A
1B
1O!
0x
1E
0D
0}
1F
#1110000
0!
19
0A
0B
#1125000
1!
09
1A
1B
1N!
0O!
0E
1G
1D
0F
0G
1F
1{
0{
#1140000
0!
19
0A
0B
#1155000
1!
09
1A
1B
1O!
1E
0D
1G
0F
1{
#1170000
0!
19
0A
0B
#1185000
1!
09
1A
1B
1|
1M!
0N!
0O!
1x
0E
0G
1H
1D
1F
0{
0H
1}
0F
1{
1I
1~
0I
1!!
#1200000
0!
19
0A
0B
#1215000
1!
09
1A
1B
1O!
1"!
0x
1E
1%
0D
0}
1F
1_!
0\!
1[!
0Z!
05!
14!
0$
#1230000
0!
19
0A
0B
#1245000
1!
09
1A
1B
1N!
0O!
0E
1G
1D
0F
0G
1H
1F
0{
0H
1{
1I
0I
#1260000
0!
19
0A
0B
#1275000
1!
09
1A
1B
1O!
1E
0D
1G
0F
1H
0{
1I
#1290000
0!
19
0A
0B
#1305000
1!
09
1A
1B
0|
0M!
1L!
0N!
0O!
1x
0E
0G
1J
0H
1D
1F
0I
1{
0J
1}
1z
0F
0{
1K
1I
0~
0K
0!!
#1320000
0!
19
0A
0B
#1335000
1!
09
1A
1B
0L!
0"!
0z
0%
0I
#1350000
0!
19
0A
0B
#1365000
1!
09
1A
1B
1O!
0x
1E
0D
0}
1F
#1380000
0!
19
0A
0B
#1395000
1!
09
1A
1B
1N!
0O!
0E
1G
1D
0F
0G
1F
1{
0{
#1410000
0!
19
0A
0B
#1425000
1!
09
1A
1B
1O!
1E
0D
1G
0F
1{
#1440000
0!
19
0A
0B
#1455000
1!
09
1A
1B
1|
1M!
0N!
0O!
1x
0E
0G
1H
1D
1F
0{
0H
1}
0F
1{
1I
1~
0I
1!!
#1470000
0!
19
0A
0B
#1485000
1!
09
1A
1B
1O!
1"!
0x
1E
1%
0D
0}
1F
0]!
1\!
0[!
15!
1$
#1500000
0!
19
0A
0B
#1515000
1!
09
1A
1B
1N!
0O!
0E
1G
1D
0F
0G
1H
1F
0{
0H
1{
1I
0I
#1530000
0!
19
0A
0B
#1545000
1!
09
1A
1B
1O!
1E
0D
1G
0F
1H
0{
1I
#1560000
0!
19
0A
0B
#1575000
1!
09
1A
1B
0|
0M!
1L!
0N!
0O!
1x
0E
0G
1J
0H
1D
1F
0I
1{
0J
1}
1z
0F
0{
1K
1I
0~
0K
0!!
#1590000
0!
19
0A
0B
#1605000
1!
09
1A
1B
0L!
0"!
0z
0%
0I
#1620000
0!
19
0A
0B
#1635000
1!
09
1A
1B
1O!
0x
1E
0D
0}
1F
#1650000
0!
19
0A
0B
#1665000
1!
09
1A
1B
1N!
0O!
0E
1G
1D
0F
0G
1F
1{
0{
#1680000
0!
19
0A
0B
#1695000
1!
09
1A
1B
1O!
1E
0D
1G
0F
1{
#1710000
0!
19
0A
0B
#1725000
1!
09
1A
1B
1|
1M!
0N!
0O!
1x
0E
0G
1H
1D
1F
0{
0H
1}
0F
1{
1I
1~
0I
1!!
#1740000
0!
19
0A
0B
#1755000
1!
09
1A
1B
1O!
1"!
0x
1E
1%
0D
0}
1F
0^!
1]!
0\!
03!
#1770000
0!
19
0A
0B
#1785000
1!
09
1A
1B
1N!
0O!
0E
1G
1D
0F
0G
1H
1F
0{
0H
1{
1I
0I
#1800000
0!
19
0A
0B
#1815000
1!
09
1A
1B
1O!
1E
0D
1G
0F
1H
0{
1I
#1830000
0!
19
0A
0B
#1845000
1!
09
1A
1B
0|
0M!
1L!
0N!
0O!
1x
0E
0G
1J
0H
1D
1F
0I
1{
0J
1}
1z
0F
0{
1K
1I
0~
0K
0!!
#1860000
0!
19
0A
0B
#1875000
1!
09
1A
1B
0L!
0"!
0z
0%
0I
#1890000
0!
19
0A
0B
#1905000
1!
09
1A
1B
1O!
0x
1E
0D
0}
1F
#1920000
0!
19
0A
0B
#1935000
1!
09
1A
1B
1N!
0O!
0E
1G
1D
0F
0G
1F
1{
0{
#1950000
0!
19
0A
0B
#1965000
1!
09
1A
1B
1O!
1E
0D
1G
0F
1{
#1980000
0!
19
0A
0B
#1995000
1!
09
1A
1B
1|
1M!
0N!
0O!
1x
0E
0G
1H
1D
1F
0{
0H
1}
0F
1{
1I
1~
0I
1!!
