exercise4/part1/simulation/qsim/part1.msim.vcd
$comment
	File created using the following command:
		vcd file part1.msim.vcd -direction
$end
$date
	Tue Oct 13 09:35:53 2015
$end
$version
	ModelSim Version 10.3d
$end
$timescale
	1ps
$end

$scope module part1_vlg_vec_tst $end
$var reg 8 ! SW [7:0] $end
$var wire 1 " HEX0 [6] $end
$var wire 1 # HEX0 [5] $end
$var wire 1 $ HEX0 [4] $end
$var wire 1 % HEX0 [3] $end
$var wire 1 & HEX0 [2] $end
$var wire 1 ' HEX0 [1] $end
$var wire 1 ( HEX0 [0] $end
$var wire 1 ) HEX1 [6] $end
$var wire 1 * HEX1 [5] $end
$var wire 1 + HEX1 [4] $end
$var wire 1 , HEX1 [3] $end
$var wire 1 - HEX1 [2] $end
$var wire 1 . HEX1 [1] $end
$var wire 1 / HEX1 [0] $end
$var wire 1 0 sampler $end

$scope module i1 $end
$var wire 1 1 gnd $end
$var wire 1 2 vcc $end
$var wire 1 3 unknown $end
$var tri1 1 4 devclrn $end
$var tri1 1 5 devpor $end
$var tri1 1 6 devoe $end
$var wire 1 7 ~QUARTUS_CREATED_GND~I_combout $end
$var wire 1 8 SW[5]~input_o $end
$var wire 1 9 SW[4]~input_o $end
$var wire 1 : SW[6]~input_o $end
$var wire 1 ; SW[7]~input_o $end
$var wire 1 < U0|display[3]~0_combout $end
$var wire 1 = U0|display[3]~1_combout $end
$var wire 1 > U0|display[5]~2_combout $end
$var wire 1 ? U0|display[6]~3_combout $end
$var wire 1 @ SW[2]~input_o $end
$var wire 1 A SW[0]~input_o $end
$var wire 1 B SW[3]~input_o $end
$var wire 1 C SW[1]~input_o $end
$var wire 1 D U1|display[3]~0_combout $end
$var wire 1 E U1|display[3]~1_combout $end
$var wire 1 F U1|display[5]~2_combout $end
$var wire 1 G U1|display[6]~3_combout $end
$var wire 1 H U0|display [6] $end
$var wire 1 I U0|display [5] $end
$var wire 1 J U0|display [4] $end
$var wire 1 K U0|display [3] $end
$var wire 1 L U0|display [2] $end
$var wire 1 M U0|display [1] $end
$var wire 1 N U0|display [0] $end
$var wire 1 O U1|display [6] $end
$var wire 1 P U1|display [5] $end
$var wire 1 Q U1|display [4] $end
$var wire 1 R U1|display [3] $end
$var wire 1 S U1|display [2] $end
$var wire 1 T U1|display [1] $end
$var wire 1 U U1|display [0] $end
$upscope $end
$upscope $end
$enddefinitions $end
#0
$dumpvars
bx0000 !
x(
x'
x&
x%
x$
x#
x"
0/
0.
0-
0,
0+
0*
1)
x0
01
12
x3
14
15
16
07
x8
x9
x:
x;
x<
x=
x>
x?
0@
0A
0B
0C
1D
1E
1F
0G
xN
xM
xL
zK
zJ
zI
zH
1U
1T
1S
zR
zQ
zP
zO
$end
#40000
bx0001 !
1A
00
0F
0E
0D
0U
1/
1,
1+
1*
#80000
bx0011 !
bx0010 !
0A
1C
10
1G
1E
1D
0S
1U
0/
1-
0,
0+
0)
#120000
bx0011 !
1A
00
0E
1S
0-
1+
#160000
bx0111 !
bx0101 !
bx0100 !
0A
0C
1@
10
1F
0D
0U
1/
1,
0*
#200000
bx0101 !
1A
00
1D
0T
1U
0/
1.
0,
#240000
bx0111 !
bx0110 !
0A
1C
10
1E
0+
#280000
bx0111 !
1A
00
0G
0F
0E
0D
1T
0.
1,
1+
1*
1)
#320000
bx1111 !
bx1011 !
bx1001 !
bx1000 !
0A
0C
0@
1B
10
1G
1F
1D
1E
0+
0,
0*
0)
#360000
bx1001 !
1A
00
0E
1+
#400000
bx1000 !
0A
10
1E
0+
#480000
bx0000 !
0B
00
0G
1)
