exercise4/part2/simulation/qsim/part2.msim.vcd
$comment
	File created using the following command:
		vcd file part2.msim.vcd -direction
$end
$date
	Tue Oct 13 09:44:19 2015
$end
$version
	ModelSim Version 10.3d
$end
$timescale
	1ps
$end

$scope module part2_vlg_vec_tst $end
$var reg 4 ! SW [3:0] $end
$var wire 1 " HEX0 [6] $end
$var wire 1 # HEX0 [5] $end
$var wire 1 $ HEX0 [4] $end
$var wire 1 % HEX0 [3] $end
$var wire 1 & HEX0 [2] $end
$var wire 1 ' HEX0 [1] $end
$var wire 1 ( HEX0 [0] $end
$var wire 1 ) HEX1 [6] $end
$var wire 1 * HEX1 [5] $end
$var wire 1 + HEX1 [4] $end
$var wire 1 , HEX1 [3] $end
$var wire 1 - HEX1 [2] $end
$var wire 1 . HEX1 [1] $end
$var wire 1 / HEX1 [0] $end
$var wire 1 0 sampler $end

$scope module i1 $end
$var wire 1 1 gnd $end
$var wire 1 2 vcc $end
$var wire 1 3 unknown $end
$var tri1 1 4 devclrn $end
$var tri1 1 5 devpor $end
$var tri1 1 6 devoe $end
$var wire 1 7 ~QUARTUS_CREATED_GND~I_combout $end
$var wire 1 8 SW[0]~input_o $end
$var wire 1 9 SW[2]~input_o $end
$var wire 1 : SW[3]~input_o $end
$var wire 1 ; SW[1]~input_o $end
$var wire 1 < U4|display[3]~0_combout $end
$var wire 1 = U4|display[4]~1_combout $end
$var wire 1 > U4|display[5]~2_combout $end
$var wire 1 ? U4|display[6]~3_combout $end
$var wire 1 @ UO|z[0]~0_combout $end
$var wire 1 A U4|display [6] $end
$var wire 1 B U4|display [5] $end
$var wire 1 C U4|display [4] $end
$var wire 1 D U4|display [3] $end
$var wire 1 E U4|display [2] $end
$var wire 1 F U4|display [1] $end
$var wire 1 G U4|display [0] $end
$upscope $end
$upscope $end
$enddefinitions $end
#0
$dumpvars
b0 !
0(
0'
0&
0%
0$
0#
1"
0/
0.
0-
0,
0+
0*
1)
x0
01
12
x3
14
15
16
07
08
09
0:
0;
1<
1=
1>
0?
0@
1G
1F
1E
zD
zC
zB
zA
$end
#40000
b1 !
18
00
0>
0=
0<
0G
1(
1%
1$
1#
#80000
b11 !
b10 !
08
1;
10
1?
1=
1<
0E
1G
0(
1&
0%
0$
0"
#120000
b11 !
18
00
0=
1E
0&
1$
#160000
b111 !
b101 !
b100 !
08
0;
19
10
1>
0<
0G
1(
1%
0#
#200000
b101 !
18
00
1<
0F
1G
0(
1'
0%
#240000
b111 !
b110 !
08
1;
10
1=
0$
#280000
b111 !
18
00
0?
0>
0=
0<
1F
0'
1%
1$
1#
1"
#320000
b1111 !
b1011 !
b1001 !
b1000 !
08
0;
09
1:
10
1?
1>
1=
1<
0%
0$
0#
0"
#360000
b1001 !
18
00
0=
1$
#400000
b1011 !
b1010 !
08
1;
10
0?
1=
1@
1/
1,
1+
1*
0$
1"
#440000
b1011 !
18
00
0>
0=
0<
0G
1(
1%
1$
1#
#480000
b1111 !
b1101 !
b1100 !
08
0;
19
10
1?
1=
1<
0E
1G
0(
1&
0%
0$
0"
#520000
b1101 !
18
00
0=
1E
0&
1$
#560000
b1111 !
b1110 !
08
1;
10
1>
0<
0G
1(
1%
0#
#600000
b1111 !
18
00
1<
0F
1G
0(
1'
0%
#640000
b111 !
b11 !
b1 !
b0 !
08
0;
09
0:
10
0?
1=
1F
0@
0/
0,
0+
0*
0'
0$
1"
