exercise3/part5/simulation/qsim/part5.msim.vcd
$comment
	File created using the following command:
		vcd file part5.msim.vcd -direction
$end
$date
	Tue Oct 06 09:58:29 2015
$end
$version
	ModelSim Version 10.3d
$end
$timescale
	1ps
$end

$scope module part5_vlg_vec_tst $end
$var reg 10 ! SW [9:0] $end
$var wire 1 " HEX0 [0] $end
$var wire 1 # HEX0 [1] $end
$var wire 1 $ HEX0 [2] $end
$var wire 1 % HEX0 [3] $end
$var wire 1 & HEX0 [4] $end
$var wire 1 ' HEX0 [5] $end
$var wire 1 ( HEX0 [6] $end
$var wire 1 ) HEX1 [0] $end
$var wire 1 * HEX1 [1] $end
$var wire 1 + HEX1 [2] $end
$var wire 1 , HEX1 [3] $end
$var wire 1 - HEX1 [4] $end
$var wire 1 . HEX1 [5] $end
$var wire 1 / HEX1 [6] $end
$var wire 1 0 HEX2 [0] $end
$var wire 1 1 HEX2 [1] $end
$var wire 1 2 HEX2 [2] $end
$var wire 1 3 HEX2 [3] $end
$var wire 1 4 HEX2 [4] $end
$var wire 1 5 HEX2 [5] $end
$var wire 1 6 HEX2 [6] $end
$var wire 1 7 LEDR [9] $end
$var wire 1 8 LEDR [8] $end
$var wire 1 9 LEDR [7] $end
$var wire 1 : LEDR [6] $end
$var wire 1 ; LEDR [5] $end
$var wire 1 < LEDR [4] $end
$var wire 1 = LEDR [3] $end
$var wire 1 > LEDR [2] $end
$var wire 1 ? LEDR [1] $end
$var wire 1 @ LEDR [0] $end
$var wire 1 A sampler $end

$scope module i1 $end
$var wire 1 B gnd $end
$var wire 1 C vcc $end
$var wire 1 D unknown $end
$var tri1 1 E devclrn $end
$var tri1 1 F devpor $end
$var tri1 1 G devoe $end
$var wire 1 H SW[6]~input_o $end
$var wire 1 I SW[7]~input_o $end
$var wire 1 J ~QUARTUS_CREATED_GND~I_combout $end
$var wire 1 K SW[8]~input_o $end
$var wire 1 L SW[2]~input_o $end
$var wire 1 M SW[9]~input_o $end
$var wire 1 N SW[4]~input_o $end
$var wire 1 O SW[0]~input_o $end
$var wire 1 P U0|M[0]~0_combout $end
$var wire 1 Q SW[1]~input_o $end
$var wire 1 R SW[3]~input_o $end
$var wire 1 S SW[5]~input_o $end
$var wire 1 T U0|M[1]~1_combout $end
$var wire 1 U H0|Display3[6]~0_combout $end
$var wire 1 V H0|Display1~0_combout $end
$var wire 1 W H0|Display1~1_combout $end
$var wire 1 X H0|Display1~2_combout $end
$var wire 1 Y H0|Display2 [0] $end
$var wire 1 Z H0|Display2 [1] $end
$var wire 1 [ H0|Display2 [2] $end
$var wire 1 \ H0|Display2 [3] $end
$var wire 1 ] H0|Display2 [4] $end
$var wire 1 ^ H0|Display2 [5] $end
$var wire 1 _ H0|Display2 [6] $end
$upscope $end
$upscope $end
$enddefinitions $end
#0
$dumpvars
b0 !
1(
0'
0&
1%
1$
1#
1"
0/
0.
0-
0,
1+
1*
0)
06
15
04
03
02
01
10
0@
0?
0>
0=
0<
0;
0:
09
08
07
xA
0B
1C
xD
1E
1F
1G
0H
0I
0J
0K
0L
0M
0N
0O
0P
0Q
0R
0S
0T
0U
0V
0W
0X
z_
z^
z]
z\
z[
zZ
0Y
$end
#20000
b100000 !
1S
0A
1T
1X
1U
1.
16
13
1Y
1)
12
11
05
0%
0(
0*
0+
0"
#40000
b110000 !
b10000 !
1N
0S
1A
0T
1P
0X
1W
1'
1/
1,
0.
06
03
00
0#
0$
1*
1+
1"
#60000
b110000 !
1S
0A
1T
0W
0U
1.
16
13
1V
1&
1-
14
15
1%
1(
10
1#
1$
#80000
b100110000 !
b100100000 !
b100000000 !
0N
0S
1K
1A
0T
0P
0'
0/
0,
0.
06
03
0Y
0V
0&
0-
04
0)
02
01
#100000
b100001000 !
1R
0A
1T
1X
1U
1.
16
13
1Y
1)
12
11
05
0%
0(
0*
0+
0"
#120000
b100001100 !
b100000100 !
1L
0R
1A
0T
1P
0X
1W
1'
1/
1,
0.
06
03
00
0#
0$
1*
1+
1"
#140000
b100001100 !
1R
0A
1T
0W
0U
1.
16
13
1V
1&
1-
14
15
1%
1(
10
1#
1$
#160000
b1100001100 !
b1000001100 !
b1000001000 !
b1000000000 !
0L
0R
0K
1M
1A
0T
0P
0'
0/
0,
0.
06
03
0Y
0V
0&
0-
04
0)
02
01
#180000
b1000000010 !
1Q
0A
1T
1X
1U
1.
16
13
1Y
1)
12
11
05
0%
0(
0*
0+
0"
#200000
b1000000011 !
b1000000001 !
1O
0Q
1A
0T
1P
0X
1W
1'
1/
1,
0.
06
03
00
0#
0$
1*
1+
1"
#220000
b1000000011 !
1Q
0A
1T
0W
0U
1.
16
13
1V
1&
1-
14
15
1%
1(
10
1#
1$
#240000
b11 !
b10 !
b0 !
0O
0Q
0M
1A
0T
0P
0'
0/
0,
0.
06
03
0Y
0V
0&
0-
04
0)
02
01
